<?xml version="1.0" encoding="UTF-8" standalone="no"?>
<!-- Generator: Adobe Illustrator 19.0.0, SVG Export Plug-In . SVG Version: 6.00 Build 0)  -->

<svg
   xmlns:dc="http://purl.org/dc/elements/1.1/"
   xmlns:cc="http://creativecommons.org/ns#"
   xmlns:rdf="http://www.w3.org/1999/02/22-rdf-syntax-ns#"
   xmlns:svg="http://www.w3.org/2000/svg"
   xmlns="http://www.w3.org/2000/svg"
   xmlns:sodipodi="http://sodipodi.sourceforge.net/DTD/sodipodi-0.dtd"
   xmlns:inkscape="http://www.inkscape.org/namespaces/inkscape"
   version="1.1"
   id="icons"
   x="0px"
   y="0px"
   viewBox="0 0 45.700002 42"
   xml:space="preserve"
   sodipodi:docname="diamond.svg"
   width="45.700001"
   height="42"
   inkscape:version="0.92.1 r15371"><metadata
     id="metadata58"><rdf:RDF><cc:Work
         rdf:about=""><dc:format>image/svg+xml</dc:format><dc:type
           rdf:resource="http://purl.org/dc/dcmitype/StillImage" /><dc:title></dc:title></cc:Work></rdf:RDF></metadata><defs
     id="defs56" /><sodipodi:namedview
     pagecolor="#ffffff"
     bordercolor="#666666"
     borderopacity="1"
     objecttolerance="10"
     gridtolerance="10"
     guidetolerance="10"
     inkscape:pageopacity="0"
     inkscape:pageshadow="2"
     inkscape:window-width="640"
     inkscape:window-height="480"
     id="namedview54"
     showgrid="false"
     fit-margin-top="0"
     fit-margin-left="0"
     fit-margin-right="0"
     fit-margin-bottom="0"
     inkscape:zoom="5.6190476"
     inkscape:cx="22.799999"
     inkscape:cy="21"
     inkscape:window-x="0"
     inkscape:window-y="0"
     inkscape:window-maximized="0"
     inkscape:current-layer="icons" /><style
     type="text/css"
     id="style2">
	.st0{fill:#5FB0E5;}
	.st1{fill:#0686D8;}
	.st2{fill:#FFFFFF;}
</style><g
     id="XMLID_782_"><g
       id="XMLID_807_"><circle
         id="XMLID_14_"
         class="st0"
         cx="28.6"
         cy="6.9000001"
         r="0.69999999"
         style="fill:#5fb0e5" /></g><g
       id="XMLID_806_"><circle
         id="XMLID_15_"
         class="st0"
         cx="22.299999"
         cy="4.5999999"
         r="1"
         style="fill:#5fb0e5" /></g><g
       id="XMLID_805_"><circle
         id="XMLID_16_"
         class="st0"
         cx="27.5"
         cy="1.6"
         r="1.6"
         style="fill:#5fb0e5" /></g><g
       id="XMLID_804_"><circle
         id="XMLID_17_"
         class="st0"
         cx="36.599998"
         cy="4.8000002"
         r="1.1"
         style="fill:#5fb0e5" /></g><g
       id="XMLID_803_"><circle
         id="XMLID_18_"
         class="st0"
         cx="15.4"
         cy="6.3000002"
         r="0.80000001"
         style="fill:#5fb0e5" /></g><g
       id="XMLID_783_"><g
         id="XMLID_802_"><path
           id="XMLID_2093_"
           class="st0"
           d="M 42,39.6 H 3.8 c -0.5,0 -1,-0.5 -1,-1 V 11.7 c 0,-0.5 0.5,-1 1,-1 H 42 c 0.5,0 1,0.5 1,1 v 26.9 c 0,0.6 -0.4,1 -1,1 z"
           inkscape:connector-curvature="0"
           style="fill:#5fb0e5" /></g><g
         id="XMLID_801_"><rect
           id="XMLID_1823_"
           x="27.200001"
           y="10"
           class="st1"
           width="2.8"
           height="1.5"
           style="fill:#0686d8" /></g><g
         id="XMLID_800_"><path
           id="XMLID_1822_"
           class="st1"
           d="M 42,40.4 H 3.8 C 2.8,40.4 2,39.6 2,38.6 V 11.7 c 0,-1 0.8,-1.8 1.8,-1.8 h 20.6 v 1.5 H 3.8 c -0.1,0 -0.3,0.1 -0.3,0.3 v 26.9 c 0,0.1 0.1,0.3 0.3,0.3 H 42 c 0.1,0 0.3,-0.1 0.3,-0.3 V 11.7 c 0,-0.1 -0.1,-0.3 -0.3,-0.3 H 33.1 V 10 H 42 c 1,0 1.8,0.8 1.8,1.8 v 26.9 c 0,0.9 -0.8,1.7 -1.8,1.7 z"
           inkscape:connector-curvature="0"
           style="fill:#0686d8" /></g><g
         id="XMLID_799_"><rect
           id="XMLID_2087_"
           x="4.8000002"
           y="13"
           class="st2"
           width="36.099998"
           height="23.5"
           style="fill:#ffffff" /></g><g
         id="XMLID_798_"><path
           id="XMLID_20_"
           class="st0"
           d="M 42.3,41.2 H 3.1 C 2.2,41.2 1.4,40.5 1.2,39.6 L 0.9,37.9 h 18.2 l 0.7,1 h 5 l 0.8,-1 h 19.2 l -0.2,1.5 c -0.3,1.1 -1.2,1.8 -2.3,1.8 z"
           inkscape:connector-curvature="0"
           style="fill:#5fb0e5" /></g><g
         id="XMLID_797_"><path
           id="XMLID_1819_"
           class="st1"
           d="M 42.3,42 H 3.1 C 1.8,42 0.7,41.1 0.5,39.8 L 0,37.2 h 19.5 l 0.7,1 h 4.3 l 0.8,-1 h 20.4 l -0.4,2.4 C 45,41 43.8,42 42.3,42 Z M 1.8,38.7 1.9,39.5 c 0.1,0.6 0.6,1 1.2,1 h 39.3 c 0.7,0 1.3,-0.5 1.4,-1.2 l 0.1,-0.6 h -18 l -0.8,1 h -5.8 l -0.7,-1 H 1.8 Z"
           inkscape:connector-curvature="0"
           style="fill:#0686d8" /></g><g
         id="XMLID_784_"><g
           id="XMLID_796_"><polygon
             id="XMLID_22_"
             class="st0"
             points="20.2,16.4 14.7,16.4 11.9,21.3 23,33.9 34.1,21.3 31.4,16.4 25.8,16.4 "
             style="fill:#5fb0e5" /></g><g
           id="XMLID_795_"><path
             id="XMLID_1816_"
             class="st1"
             d="M 23,35 11,21.3 14.3,15.6 h 17.6 l 3.3,5.7 z M 12.8,21.2 23,32.8 33.2,21.2 30.9,17.2 H 15.1 Z"
             inkscape:connector-curvature="0"
             style="fill:#0686d8" /></g><g
           id="XMLID_794_"><rect
             id="XMLID_1815_"
             x="11.9"
             y="20.5"
             class="st1"
             width="22.200001"
             height="1.5"
             style="fill:#0686d8" /></g><g
           id="XMLID_793_"><rect
             id="XMLID_1814_"
             x="13.3"
             y="26.799999"
             transform="matrix(0.4024,0.9155,-0.9155,0.4024,37.3415,-2.0465)"
             class="st1"
             width="13.8"
             height="1.5"
             style="fill:#0686d8" /></g><g
           id="XMLID_792_"><rect
             id="XMLID_1813_"
             x="25"
             y="20.4"
             transform="matrix(0.9155,0.4024,-0.4024,0.9155,13.1611,-8.0742)"
             class="st1"
             width="1.5"
             height="13.8"
             style="fill:#0686d8" /></g><g
           id="XMLID_791_"><rect
             id="XMLID_1812_"
             x="22.299999"
             y="21.299999"
             class="st1"
             width="1.5"
             height="12.4"
             style="fill:#0686d8" /></g><g
           id="XMLID_790_"><rect
             id="XMLID_1811_"
             x="13.3"
             y="18.1"
             transform="matrix(0.5001,0.866,-0.866,0.5001,24.3519,-4.493)"
             class="st1"
             width="5.5999999"
             height="1.5"
             style="fill:#0686d8" /></g><g
           id="XMLID_789_"><rect
             id="XMLID_1810_"
             x="18.799999"
             y="18.1"
             transform="matrix(0.5001,0.866,-0.866,0.5001,27.1326,-9.3091)"
             class="st1"
             width="5.5999999"
             height="1.5"
             style="fill:#0686d8" /></g><g
           id="XMLID_788_"><rect
             id="XMLID_1809_"
             x="24.4"
             y="18.1"
             transform="matrix(0.5001,0.866,-0.866,0.5001,29.913,-14.1253)"
             class="st1"
             width="5.5999999"
             height="1.5"
             style="fill:#0686d8" /></g><g
           id="XMLID_787_"><rect
             id="XMLID_1808_"
             x="29.200001"
             y="16.1"
             transform="matrix(0.866,0.5001,-0.5001,0.866,13.4402,-12.4617)"
             class="st1"
             width="1.5"
             height="5.5999999"
             style="fill:#0686d8" /></g><g
           id="XMLID_786_"><rect
             id="XMLID_1807_"
             x="23.700001"
             y="16.1"
             transform="matrix(0.866,0.5,-0.5,0.866,12.694,-9.6804)"
             class="st1"
             width="1.5"
             height="5.5999999"
             style="fill:#0686d8" /></g><g
           id="XMLID_785_"><rect
             id="XMLID_1806_"
             x="18.1"
             y="16.1"
             transform="matrix(0.866,0.5001,-0.5001,0.866,11.9497,-6.8999)"
             class="st1"
             width="1.5"
             height="5.5999999"
             style="fill:#0686d8" /></g></g></g></g></svg>