<?xml version="1.0" encoding="UTF-8" standalone="no"?>
<!-- Generator: Adobe Illustrator 19.0.0, SVG Export Plug-In . SVG Version: 6.00 Build 0)  -->

<svg
   xmlns:dc="http://purl.org/dc/elements/1.1/"
   xmlns:cc="http://creativecommons.org/ns#"
   xmlns:rdf="http://www.w3.org/1999/02/22-rdf-syntax-ns#"
   xmlns:svg="http://www.w3.org/2000/svg"
   xmlns="http://www.w3.org/2000/svg"
   xmlns:sodipodi="http://sodipodi.sourceforge.net/DTD/sodipodi-0.dtd"
   xmlns:inkscape="http://www.inkscape.org/namespaces/inkscape"
   version="1.1"
   id="icons"
   x="0px"
   y="0px"
   viewBox="0 0 42.699996 42.2"
   xml:space="preserve"
   sodipodi:docname="горячий клиент.svg"
   width="42.699997"
   height="42.200001"
   inkscape:version="0.92.1 r15371"><metadata
     id="metadata57"><rdf:RDF><cc:Work
         rdf:about=""><dc:format>image/svg+xml</dc:format><dc:type
           rdf:resource="http://purl.org/dc/dcmitype/StillImage" /><dc:title></dc:title></cc:Work></rdf:RDF></metadata><defs
     id="defs55" /><sodipodi:namedview
     pagecolor="#ffffff"
     bordercolor="#666666"
     borderopacity="1"
     objecttolerance="10"
     gridtolerance="10"
     guidetolerance="10"
     inkscape:pageopacity="0"
     inkscape:pageshadow="2"
     inkscape:window-width="1379"
     inkscape:window-height="701"
     id="namedview53"
     showgrid="false"
     fit-margin-top="0"
     fit-margin-left="0"
     fit-margin-right="0"
     fit-margin-bottom="0"
     inkscape:zoom="4.4612475"
     inkscape:cx="21.300001"
     inkscape:cy="19.15"
     inkscape:window-x="0"
     inkscape:window-y="0"
     inkscape:window-maximized="0"
     inkscape:current-layer="icons" /><style
     type="text/css"
     id="style2">
	.st0{fill:#5FB0E5;}
	.st1{fill:#D2E9F7;}
	.st2{fill:#0686D8;}
	.st3{fill:#FFFFFF;}
</style><g
     id="XMLID_2335_"
     transform="translate(-4.9,-3.4)"><g
       id="XMLID_2386_"><circle
         id="XMLID_2387_"
         class="st0"
         cx="37"
         cy="42.5"
         r="0.80000001"
         style="fill:#5fb0e5" /></g><g
       id="XMLID_2384_"><circle
         id="XMLID_2385_"
         class="st0"
         cx="36.599998"
         cy="34.799999"
         r="0.60000002"
         style="fill:#5fb0e5" /></g><g
       id="XMLID_2382_"><circle
         id="XMLID_2383_"
         class="st0"
         cx="14.6"
         cy="34.5"
         r="0.60000002"
         style="fill:#5fb0e5" /></g><g
       id="XMLID_2380_"><circle
         id="XMLID_2381_"
         class="st0"
         cx="6"
         cy="37.700001"
         r="1.1"
         style="fill:#5fb0e5" /></g><g
       id="XMLID_2378_"><circle
         id="XMLID_2379_"
         class="st0"
         cx="46.099998"
         cy="37"
         r="1.5"
         style="fill:#5fb0e5" /></g><g
       id="XMLID_2376_"><circle
         id="XMLID_2377_"
         class="st0"
         cx="16.4"
         cy="42.900002"
         r="1.1"
         style="fill:#5fb0e5" /></g><g
       id="XMLID_2336_"><g
         id="XMLID_2374_"><circle
           id="XMLID_2375_"
           class="st1"
           cx="27.200001"
           cy="19.299999"
           r="15.2"
           style="fill:#d2e9f7" /></g><g
         id="XMLID_2372_"><circle
           id="XMLID_2373_"
           class="st0"
           cx="27.200001"
           cy="19.299999"
           r="9.8000002"
           style="fill:#5fb0e5" /></g><g
         id="XMLID_2370_"><path
           id="XMLID_2371_"
           class="st2"
           d="m 15.2,11.4 -1.3,-0.8 c 1.3,-1.9 2.9,-3.5 4.8,-4.7 l 0.8,1.3 c -1.7,1 -3.2,2.5 -4.3,4.2 z"
           inkscape:connector-curvature="0"
           style="fill:#0686d8" /></g><g
         id="XMLID_2368_"><path
           id="XMLID_2369_"
           class="st2"
           d="m 17.8,32.2 c -4.1,-3 -6.5,-7.8 -6.5,-12.8 0,-1.9 0.3,-3.7 0.9,-5.4 l 1.4,0.5 c -0.6,1.6 -0.9,3.2 -0.9,4.9 0,4.6 2.2,8.9 5.9,11.6 z"
           inkscape:connector-curvature="0"
           style="fill:#0686d8" /></g><g
         id="XMLID_2366_"><path
           id="XMLID_2367_"
           class="st2"
           d="m 36.2,32.5 -0.8,-1.2 c 4,-2.7 6.3,-7.2 6.3,-11.9 C 41.7,11.4 35.2,5 27.3,5 25.3,5 23.5,5.4 21.7,6.1 L 21,4.7 c 2,-0.8 4.1,-1.3 6.2,-1.3 8.8,0 15.9,7.2 15.9,15.9 0.1,5.3 -2.5,10.2 -6.9,13.2 z"
           inkscape:connector-curvature="0"
           style="fill:#0686d8" /></g><g
         id="XMLID_2354_"><g
           id="XMLID_2361_"><path
             id="XMLID_2362_"
             class="st3"
             d="m 22,22.5 h -2.5 v -5.7 h 2.2 c 0.4,0 0.7,0 1,0.1 0.3,0.1 0.5,0.2 0.6,0.4 0.3,0.3 0.4,0.6 0.4,1 0,0.4 -0.1,0.8 -0.4,1 -0.1,0.1 -0.2,0.1 -0.2,0.1 0,0 -0.1,0.1 -0.2,0.1 0.4,0.1 0.6,0.2 0.8,0.5 0.2,0.2 0.3,0.5 0.3,0.9 0,0.4 -0.1,0.7 -0.4,1 -0.2,0.4 -0.8,0.6 -1.6,0.6 z m -1.2,-3.4 h 0.6 c 0.4,0 0.6,0 0.8,-0.1 0.2,-0.1 0.3,-0.2 0.3,-0.5 0,-0.3 -0.1,-0.4 -0.2,-0.5 -0.2,-0.1 -0.4,-0.1 -0.8,-0.1 h -0.6 v 1.2 z m 0,2.4 h 0.9 c 0.4,0 0.6,0 0.8,-0.1 0.2,-0.1 0.3,-0.3 0.3,-0.5 0,-0.3 -0.1,-0.4 -0.3,-0.5 -0.2,-0.1 -0.5,-0.1 -0.9,-0.1 h -0.7 v 1.2 z"
             inkscape:connector-curvature="0"
             style="fill:#ffffff" /></g><g
           id="XMLID_2358_"><path
             id="XMLID_2359_"
             class="st3"
             d="m 26.6,21.1 c 0.2,0.3 0.5,0.4 0.9,0.4 0.4,0 0.6,-0.1 0.8,-0.4 0.2,-0.3 0.3,-0.6 0.3,-1.1 v -3.1 h 1.3 V 20 c 0,0.8 -0.2,1.5 -0.7,1.9 -0.5,0.4 -1,0.7 -1.7,0.7 -0.7,0 -1.3,-0.2 -1.7,-0.7 -0.5,-0.4 -0.7,-1.1 -0.7,-1.9 v -3.2 h 1.3 V 20 c -0.1,0.4 0,0.8 0.2,1.1 z"
             inkscape:connector-curvature="0"
             style="fill:#ffffff" /></g><g
           id="XMLID_2355_"><path
             id="XMLID_2356_"
             class="st3"
             d="m 33.7,22.5 h -1.3 v -2.2 l -2,-3.4 h 1.4 L 33,19 34.2,16.9 h 1.4 l -2,3.4 v 2.2 z"
             inkscape:connector-curvature="0"
             style="fill:#ffffff" /></g></g><g
         id="XMLID_2337_"><g
           id="XMLID_2352_"><path
             id="XMLID_2353_"
             class="st3"
             d="m 32.6,27.8 c -0.7,0 -1.3,0.6 -1.3,1.3 v -1.4 c 0,-0.7 -0.6,-1.3 -1.3,-1.3 -0.7,0 -1.3,0.6 -1.3,1.3 v -1.4 c 0,-0.7 -0.6,-1.3 -1.3,-1.3 -0.7,0 -1.3,0.6 -1.3,1.3 v -4.2 c 0,-0.7 -0.6,-1.3 -1.3,-1.3 -0.7,0 -1.3,0.6 -1.3,1.3 v 8.3 h -1.9 c -0.5,0 -0.9,0.4 -0.9,0.9 v 5.9 c 0,0.5 0.3,0.9 0.7,1.1 l 1.1,0.5 c 0.4,0.2 0.7,0.6 0.7,1.1 v 2.5 H 32 v -2.9 c 0,-0.3 0.1,-0.6 0.3,-0.8 l 1.3,-1.3 C 33.8,37.2 34,36.8 34,36.5 V 29 c -0.1,-0.6 -0.7,-1.2 -1.4,-1.2 z"
             inkscape:connector-curvature="0"
             style="fill:#ffffff" /></g><g
           id="XMLID_2350_"><path
             id="XMLID_2351_"
             class="st2"
             d="M 24.1,32.9 H 22.6 V 22.2 c 0,-1.1 0.9,-2.1 2.1,-2.1 1.2,0 2.1,0.9 2.1,2.1 V 31 h -1.5 v -8.8 c 0,-0.3 -0.3,-0.6 -0.6,-0.6 -0.3,0 -0.6,0.3 -0.6,0.6 z"
             inkscape:connector-curvature="0"
             style="fill:#0686d8" /></g><g
           id="XMLID_2348_"><path
             id="XMLID_2349_"
             class="st2"
             d="m 29.3,28.6 h -1.5 v -2.3 c 0,-0.3 -0.3,-0.6 -0.6,-0.6 -0.3,0 -0.6,0.3 -0.6,0.6 v 2.3 h -1.5 v -2.3 c 0,-1.1 0.9,-2.1 2.1,-2.1 1.1,0 2.1,0.9 2.1,2.1 z"
             inkscape:connector-curvature="0"
             style="fill:#0686d8" /></g><g
           id="XMLID_2346_"><path
             id="XMLID_2347_"
             class="st2"
             d="m 32,30.9 h -1.5 v -3.2 c 0,-0.3 -0.3,-0.6 -0.6,-0.6 -0.3,0 -0.6,0.3 -0.6,0.6 v 3.2 h -1.5 v -3.2 c 0,-1.1 0.9,-2.1 2.1,-2.1 1.1,0 2.1,0.9 2.1,2.1 z"
             inkscape:connector-curvature="0"
             style="fill:#0686d8" /></g><g
           id="XMLID_2344_"><path
             id="XMLID_2345_"
             class="st2"
             d="m 32.6,42.5 h -1.5 v -2.9 c 0,-0.5 0.2,-1 0.5,-1.3 L 33,37 c 0.1,-0.1 0.2,-0.2 0.2,-0.4 v -7.5 c 0,-0.3 -0.3,-0.6 -0.6,-0.6 -0.3,0 -0.6,0.3 -0.6,0.6 v 1.2 h -1.5 v -1.2 c 0,-1.1 0.9,-2.1 2.1,-2.1 1.1,0 2.1,0.9 2.1,2.1 v 7.5 c 0,0.5 -0.2,1.1 -0.6,1.4 l -1.3,1.3 c -0.1,0.1 -0.1,0.1 -0.1,0.2 v 3 z"
             inkscape:connector-curvature="0"
             style="fill:#0686d8" /></g><g
           id="XMLID_2342_"><path
             id="XMLID_2343_"
             class="st2"
             d="M 23.8,42.5 H 22.3 V 40 c 0,-0.2 -0.1,-0.3 -0.3,-0.4 L 20.9,39 c -0.7,-0.3 -1.1,-1 -1.1,-1.8 v -5.9 c 0,-0.9 0.7,-1.6 1.6,-1.6 h 1.9 v 1.5 h -1.9 c -0.1,0 -0.1,0.1 -0.1,0.1 v 5.9 c 0,0.2 0.1,0.3 0.3,0.4 l 1.1,0.5 c 0.7,0.3 1.1,1 1.1,1.8 z"
             inkscape:connector-curvature="0"
             style="fill:#0686d8" /></g><g
           id="XMLID_2340_"><rect
             id="XMLID_2341_"
             x="21.9"
             y="40.200001"
             class="st0"
             width="11.2"
             height="5.4000001"
             style="fill:#5fb0e5" /></g><g
           id="XMLID_2338_"><polygon
             id="XMLID_2339_"
             class="st2"
             points="32.4,41 22.6,41 22.6,45.6 21.1,45.6 21.1,39.5 33.9,39.5 33.9,45.6 32.4,45.6 "
             style="fill:#0686d8" /></g></g></g></g></svg>