<?xml version="1.0" encoding="UTF-8" standalone="no"?>
<!-- Generator: Adobe Illustrator 19.0.0, SVG Export Plug-In . SVG Version: 6.00 Build 0)  -->

<svg
   xmlns:dc="http://purl.org/dc/elements/1.1/"
   xmlns:cc="http://creativecommons.org/ns#"
   xmlns:rdf="http://www.w3.org/1999/02/22-rdf-syntax-ns#"
   xmlns:svg="http://www.w3.org/2000/svg"
   xmlns="http://www.w3.org/2000/svg"
   xmlns:sodipodi="http://sodipodi.sourceforge.net/DTD/sodipodi-0.dtd"
   xmlns:inkscape="http://www.inkscape.org/namespaces/inkscape"
   version="1.1"
   id="e_commerce"
   x="0px"
   y="0px"
   viewBox="0 0 188.39999 181.7"
   xml:space="preserve"
   sodipodi:docname="int-store.svg"
   width="188.39999"
   height="181.7"
   inkscape:version="0.92.1 r15371"><metadata
     id="metadata43"><rdf:RDF><cc:Work
         rdf:about=""><dc:format>image/svg+xml</dc:format><dc:type
           rdf:resource="http://purl.org/dc/dcmitype/StillImage" /><dc:title></dc:title></cc:Work></rdf:RDF></metadata><defs
     id="defs41" /><sodipodi:namedview
     pagecolor="#ffffff"
     bordercolor="#666666"
     borderopacity="1"
     objecttolerance="10"
     gridtolerance="10"
     guidetolerance="10"
     inkscape:pageopacity="0"
     inkscape:pageshadow="2"
     inkscape:window-width="1088"
     inkscape:window-height="599"
     id="namedview39"
     showgrid="false"
     fit-margin-top="0"
     fit-margin-left="0"
     fit-margin-right="0"
     fit-margin-bottom="0"
     inkscape:zoom="1.2988443"
     inkscape:cx="94.150002"
     inkscape:cy="90.850002"
     inkscape:window-x="584"
     inkscape:window-y="235"
     inkscape:window-maximized="0"
     inkscape:current-layer="e_commerce" /><style
     type="text/css"
     id="style2">
	.st0{fill:#FFFFFF;}
	.st1{fill:#D2E9F7;}
	.st2{fill:#2682C5;}
	.st3{fill:#60AFE2;}
	.st4{fill:#2682C5;stroke:#2682C5;stroke-width:2;stroke-miterlimit:10;}
</style><g
     id="XMLID_178_"><g
       id="XMLID_207_"><path
         id="XMLID_208_"
         class="st0"
         d="m 5.6,178.1 h 177.1 c 1.1,0 2,-0.9 2,-2 V 48.9 c 0,-1.1 -0.9,-2 -2,-2 H 5.6 c -1.1,0 -2,0.9 -2,2 v 127.2 c 0,1.1 0.9,2 2,2 z"
         inkscape:connector-curvature="0"
         style="fill:#ffffff" /></g><g
       id="XMLID_205_"><path
         id="XMLID_206_"
         class="st1"
         d="M 184.7,74.9 V 56 c 0,-5 -4.1,-9.1 -9.1,-9.1 h -163 c -5,0 -9.1,4.1 -9.1,9.1 v 18.9 z"
         inkscape:connector-curvature="0"
         style="fill:#d2e9f7" /></g><g
       id="XMLID_203_"><path
         id="XMLID_204_"
         class="st2"
         d="m 181.1,153.9 h 7.2 V 56 c 0,-7 -5.7,-12.7 -12.7,-12.7 H 80 v 7.2 h 95.6 c 3,0 5.5,2.5 5.5,5.5 z"
         inkscape:connector-curvature="0"
         style="fill:#2682c5" /></g><g
       id="XMLID_201_"><path
         id="XMLID_202_"
         class="st2"
         d="m 12.7,181.7 h 163 c 7,0 12.7,-5.7 12.7,-12.7 v -15.1 h -7.2 V 169 c 0,3 -2.5,5.5 -5.5,5.5 h -163 c -3,0 -5.5,-2.5 -5.5,-5.5 V 56 c 0,-3 2.5,-5.5 5.5,-5.5 H 43.9 V 43.3 H 12.7 C 5.7,43.3 0,49 0,56 v 113.1 c 0,6.9 5.7,12.6 12.7,12.6 z"
         inkscape:connector-curvature="0"
         style="fill:#2682c5" /></g><g
       id="XMLID_199_"><rect
         id="XMLID_200_"
         x="49.299999"
         y="43.299999"
         class="st2"
         width="16.1"
         height="7.1999998"
         style="fill:#2682c5" /></g><g
       id="XMLID_197_"><rect
         id="XMLID_198_"
         x="3.5999999"
         y="71.800003"
         class="st2"
         width="181.10001"
         height="7.1999998"
         style="fill:#2682c5" /></g><g
       id="XMLID_195_"><rect
         id="XMLID_196_"
         x="156.7"
         y="58.799999"
         class="st2"
         width="7.1999998"
         height="7.1999998"
         style="fill:#2682c5" /></g><g
       id="XMLID_193_"><rect
         id="XMLID_194_"
         x="139.89999"
         y="58.799999"
         class="st2"
         width="7.1999998"
         height="7.1999998"
         style="fill:#2682c5" /></g><g
       id="XMLID_191_"><rect
         id="XMLID_192_"
         x="123.1"
         y="58.799999"
         class="st2"
         width="7.3000002"
         height="7.1999998"
         style="fill:#2682c5" /></g><g
       id="XMLID_189_"><circle
         id="XMLID_190_"
         class="st3"
         cx="75.400002"
         cy="34.700001"
         r="2.5999999"
         style="fill:#60afe2" /></g><g
       id="XMLID_183_"><circle
         id="XMLID_184_"
         class="st3"
         cx="63.599998"
         cy="13.8"
         r="4.1999998"
         style="fill:#60afe2" /></g><g
       id="XMLID_181_"><circle
         id="XMLID_182_"
         class="st3"
         cx="105.4"
         cy="11.1"
         r="5.8000002"
         style="fill:#60afe2" /></g><g
       id="XMLID_179_"><circle
         id="XMLID_180_"
         class="st3"
         cx="19.799999"
         cy="6.9000001"
         r="6.9000001"
         style="fill:#60afe2" /></g></g><polygon
     id="XMLID_22_"
     class="st1"
     points="74.3,135.5 120.2,135.5 128.7,110.4 128.7,109.3 79.8,108.2 69.1,109.3 74,131.4 "
     style="fill:#d2e9f7" /><g
     id="XMLID_354_"><path
       id="XMLID_379_"
       class="st4"
       d="m 74.9,136.9 h 47.5 l 10.8,-33.1 -3.6,-1.2 -1.3,4 h -59 L 66.8,92.5 H 55 v 3.7 h 8.6 l 8.9,48.7 h 49.9 v -3.7 H 75.8 Z m -4.7,-26.5 h 57.1 l -7.4,22.9 H 74.3 Z"
       inkscape:connector-curvature="0"
       style="fill:#2682c5;stroke:#2682c5;stroke-width:2;stroke-miterlimit:10" /><path
       id="XMLID_358_"
       class="st4"
       d="m 82.8,148.5 c -3.7,0 -6.7,3 -6.7,6.7 0,3.7 3,6.7 6.7,6.7 3.7,0 6.7,-3 6.7,-6.7 0,-3.7 -3,-6.7 -6.7,-6.7 z m 0,9.5 c -1.6,0 -3,-1.3 -3,-3 0,-1.7 1.3,-3 3,-3 1.7,0 3,1.3 3,3 0,1.7 -1.4,3 -3,3 z"
       inkscape:connector-curvature="0"
       style="fill:#2682c5;stroke:#2682c5;stroke-width:2;stroke-miterlimit:10" /><path
       id="XMLID_355_"
       class="st4"
       d="m 111.4,148.5 c -3.7,0 -6.7,3 -6.7,6.7 0,3.7 3,6.7 6.7,6.7 3.7,0 6.7,-3 6.7,-6.7 0,-3.7 -3,-6.7 -6.7,-6.7 z m 0,9.5 c -1.6,0 -3,-1.3 -3,-3 0,-1.7 1.3,-3 3,-3 1.7,0 3,1.3 3,3 0,1.7 -1.3,3 -3,3 z"
       inkscape:connector-curvature="0"
       style="fill:#2682c5;stroke:#2682c5;stroke-width:2;stroke-miterlimit:10" /></g><circle
     id="XMLID_14_"
     class="st3"
     cx="82.800003"
     cy="155.2"
     r="2.0999999"
     style="fill:#60afe2" /><circle
     id="XMLID_29_"
     class="st3"
     cx="111.4"
     cy="155.2"
     r="2.0999999"
     style="fill:#60afe2" /></svg>