<?xml version="1.0" encoding="UTF-8" standalone="no"?>
<!-- Generator: Adobe Illustrator 19.0.0, SVG Export Plug-In . SVG Version: 6.00 Build 0)  -->

<svg
   xmlns:dc="http://purl.org/dc/elements/1.1/"
   xmlns:cc="http://creativecommons.org/ns#"
   xmlns:rdf="http://www.w3.org/1999/02/22-rdf-syntax-ns#"
   xmlns:svg="http://www.w3.org/2000/svg"
   xmlns="http://www.w3.org/2000/svg"
   xmlns:sodipodi="http://sodipodi.sourceforge.net/DTD/sodipodi-0.dtd"
   xmlns:inkscape="http://www.inkscape.org/namespaces/inkscape"
   version="1.1"
   id="icons"
   x="0px"
   y="0px"
   viewBox="-73 73.5 43.799998 43.500003"
   xml:space="preserve"
   sodipodi:docname="безупречная репутация.svg"
   width="43.799999"
   height="43.500004"
   inkscape:version="0.92.1 r15371"><metadata
     id="metadata63"><rdf:RDF><cc:Work
         rdf:about=""><dc:format>image/svg+xml</dc:format><dc:type
           rdf:resource="http://purl.org/dc/dcmitype/StillImage" /><dc:title></dc:title></cc:Work></rdf:RDF></metadata><defs
     id="defs61" /><sodipodi:namedview
     pagecolor="#ffffff"
     bordercolor="#666666"
     borderopacity="1"
     objecttolerance="10"
     gridtolerance="10"
     guidetolerance="10"
     inkscape:pageopacity="0"
     inkscape:pageshadow="2"
     inkscape:window-width="1212"
     inkscape:window-height="728"
     id="namedview59"
     showgrid="false"
     fit-margin-top="0"
     fit-margin-left="0"
     fit-margin-right="0"
     fit-margin-bottom="0"
     inkscape:zoom="4.4612475"
     inkscape:cx="21.900001"
     inkscape:cy="20.249999"
     inkscape:window-x="0"
     inkscape:window-y="0"
     inkscape:window-maximized="0"
     inkscape:current-layer="icons" /><style
     type="text/css"
     id="style2">
	.st0{fill:#5FB0E5;}
	.st1{fill:#0686D8;}
	.st2{opacity:0.3;}
	.st3{fill:#231F20;}
	.st4{fill:#FFFFFF;}
</style><g
     id="XMLID_448_"
     transform="translate(-4.3,-3.1999969)"><g
       id="XMLID_371_"><g
         id="XMLID_372_"><polygon
           id="XMLID_373_"
           class="st0"
           points="-50.1,119 -46.1,117.4 -42.1,119 -42.1,106.5 -46.1,106.5 -50.1,106.5 "
           style="fill:#5fb0e5" /></g><g
         id="XMLID_374_"><path
           id="XMLID_1735_"
           class="st1"
           d="m -41.4,120.1 -4.8,-1.9 -4.8,1.9 v -14.4 h 9.5 z m -8,-12.9 v 10.7 l 3.3,-1.3 3.3,1.3 v -10.7 z"
           inkscape:connector-curvature="0"
           style="fill:#0686d8" /></g><g
         id="XMLID_654_"
         class="st2"
         style="opacity:0.3"><path
           id="XMLID_376_"
           class="st3"
           d="m -42.1,106.5 h -4 -4 v 4.3 l 3.8,-2.1 c 0.2,-0.1 0.3,-0.1 0.5,0 l 3.7,1.9 z"
           inkscape:connector-curvature="0"
           style="fill:#231f20" /></g><g
         id="XMLID_375_"><path
           id="XMLID_2317_"
           class="st4"
           d="m -37.8,111.9 -8.1,-4.1 c -0.2,-0.1 -0.3,-0.1 -0.5,0 l -8,4.3 c -0.4,0.2 -0.9,-0.1 -0.8,-0.6 l 1.4,-8.9 c 0,-0.2 0,-0.4 -0.2,-0.5 l -6.6,-6.2 c -0.3,-0.3 -0.2,-0.8 0.3,-0.9 l 8.9,-1.4 c 0.2,0 0.3,-0.1 0.4,-0.3 l 3.9,-8.2 c 0.2,-0.4 0.8,-0.4 1,0 l 4.1,8.1 c 0.1,0.2 0.2,0.3 0.4,0.3 l 9,1.2 c 0.4,0.1 0.6,0.6 0.3,0.9 l -6.4,6.4 c -0.1,0.1 -0.2,0.3 -0.1,0.5 l 1.6,8.9 c 0.3,0.4 -0.2,0.7 -0.6,0.5 z"
           inkscape:connector-curvature="0"
           style="fill:#ffffff" /></g><g
         id="XMLID_715_"><path
           id="XMLID_1731_"
           class="st1"
           d="m -54.5,113 c -0.3,0 -0.5,-0.1 -0.7,-0.2 -0.4,-0.3 -0.6,-0.8 -0.5,-1.3 l 1.4,-8.8 -6.6,-6.2 c -0.4,-0.3 -0.5,-0.8 -0.3,-1.3 0.1,-0.5 0.5,-0.8 1,-0.9 l 8.8,-1.4 3.8,-8.1 c 0.2,-0.4 0.6,-0.7 1.1,-0.7 0.5,0 0.9,0.3 1.2,0.7 l 4.1,8 8.9,1.2 c 0.5,0.1 0.9,0.4 1,0.9 0.2,0.5 0,1 -0.3,1.3 l -6.3,6.3 1.6,8.8 c 0.1,0.5 -0.1,1 -0.5,1.3 -0.4,0.3 -0.9,0.3 -1.4,0.1 l -8,-4.1 -7.9,4.3 c 0,0 -0.2,0.1 -0.4,0.1 z m -5,-17.3 6.2,5.9 c 0.3,0.3 0.5,0.7 0.4,1.1 l -1.3,8.5 7.6,-4.1 c 0.4,-0.2 0.8,-0.2 1.2,0 l 7.7,3.9 -1.6,-8.5 c -0.1,-0.4 0.1,-0.8 0.4,-1.1 l 6.1,-6.1 -8.5,-1.1 c -0.4,-0.1 -0.8,-0.3 -1,-0.7 l -3.9,-7.7 -3.7,7.8 c -0.2,0.4 -0.5,0.7 -1,0.7 z"
           inkscape:connector-curvature="0"
           style="fill:#0686d8" /></g><g
         id="XMLID_377_"><rect
           id="XMLID_1730_"
           x="-47"
           y="79.800003"
           class="st1"
           width="1.5"
           height="3.3"
           style="fill:#0686d8" /></g><g
         id="XMLID_378_"><rect
           id="XMLID_1729_"
           x="-40.700001"
           y="80.900002"
           transform="matrix(-0.9395,-0.3425,0.3425,-0.9395,-105.7733,146.4877)"
           class="st1"
           width="1.5"
           height="3.3"
           style="fill:#0686d8" /></g><g
         id="XMLID_379_"><rect
           id="XMLID_1728_"
           x="-35.200001"
           y="84"
           transform="matrix(-0.7656,-0.6433,0.6433,-0.7656,-115.8717,129.1306)"
           class="st1"
           width="1.5"
           height="3.3"
           style="fill:#0686d8" /></g><g
         id="XMLID_380_"><rect
           id="XMLID_1727_"
           x="-31"
           y="89"
           transform="matrix(-0.4996,-0.8663,0.8663,-0.4996,-123.8933,109.6902)"
           class="st1"
           width="1.5"
           height="3.3"
           style="fill:#0686d8" /></g><g
         id="XMLID_381_"><rect
           id="XMLID_1726_"
           x="-28.799999"
           y="95"
           transform="matrix(-0.1718,-0.9851,0.9851,-0.1718,-128.0896,85.5312)"
           class="st1"
           width="1.5"
           height="3.3"
           style="fill:#0686d8" /></g><g
         id="XMLID_382_"><rect
           id="XMLID_1725_"
           x="-29.700001"
           y="102.2"
           transform="matrix(-0.9845,-0.1754,0.1754,-0.9845,-73.7398,199.4426)"
           class="st1"
           width="3.3"
           height="1.5"
           style="fill:#0686d8" /></g><g
         id="XMLID_383_"><rect
           id="XMLID_1724_"
           x="-31.9"
           y="108.2"
           transform="matrix(-0.865,-0.5017,0.5017,-0.865,-111.1107,188.0162)"
           class="st1"
           width="3.3"
           height="1.5"
           style="fill:#0686d8" /></g><g
         id="XMLID_384_"><rect
           id="XMLID_1723_"
           x="-35.900002"
           y="113.1"
           transform="matrix(-0.641,-0.7676,0.7676,-0.641,-143.6998,160.5766)"
           class="st1"
           width="3.3"
           height="1.5"
           style="fill:#0686d8" /></g><g
         id="XMLID_385_"><rect
           id="XMLID_1722_"
           x="-58.599998"
           y="112.3"
           transform="matrix(-0.7635,-0.6458,0.6458,-0.7635,-175.5498,163.5184)"
           class="st1"
           width="1.5"
           height="3.3"
           style="fill:#0686d8" /></g><g
         id="XMLID_386_"><rect
           id="XMLID_1721_"
           x="-62.700001"
           y="107.4"
           transform="matrix(-0.4965,-0.868,0.868,-0.4965,-187.4697,109.4413)"
           class="st1"
           width="1.5"
           height="3.3"
           style="fill:#0686d8" /></g><g
         id="XMLID_387_"><rect
           id="XMLID_1720_"
           x="-64.900002"
           y="101.4"
           transform="matrix(-0.1693,-0.9856,0.9856,-0.1693,-176.659,57.2796)"
           class="st1"
           width="1.5"
           height="3.3"
           style="fill:#0686d8" /></g><g
         id="XMLID_388_"><rect
           id="XMLID_1719_"
           x="-65.800003"
           y="95.900002"
           transform="matrix(-0.984,-0.178,0.178,-0.984,-144.4829,180.4085)"
           class="st1"
           width="3.3"
           height="1.5"
           style="fill:#0686d8" /></g><g
         id="XMLID_389_"><rect
           id="XMLID_1718_"
           x="-63.700001"
           y="89.900002"
           transform="matrix(-0.8635,-0.5043,0.5043,-0.8635,-161.3291,137.6696)"
           class="st1"
           width="3.3"
           height="1.5"
           style="fill:#0686d8" /></g><g
         id="XMLID_390_"><rect
           id="XMLID_1717_"
           x="-59.599998"
           y="85"
           transform="matrix(-0.6388,-0.7694,0.7694,-0.6388,-160.9079,96.0005)"
           class="st1"
           width="3.3"
           height="1.5"
           style="fill:#0686d8" /></g><g
         id="XMLID_391_"><rect
           id="XMLID_1716_"
           x="-54"
           y="81.800003"
           transform="matrix(-0.3367,-0.9416,0.9416,-0.3367,-147.7703,61.041)"
           class="st1"
           width="3.3"
           height="1.5"
           style="fill:#0686d8" /></g></g><g
       id="XMLID_442_"><circle
         id="XMLID_2280_"
         class="st0"
         cx="-28.9"
         cy="86"
         r="0.80000001"
         style="fill:#5fb0e5" /></g><g
       id="XMLID_445_"><circle
         id="XMLID_2278_"
         class="st0"
         cx="-62"
         cy="113"
         r="0.80000001"
         style="fill:#5fb0e5" /></g><g
       id="XMLID_447_"><circle
         id="XMLID_2276_"
         class="st0"
         cx="-60.5"
         cy="119"
         r="1.2"
         style="fill:#5fb0e5" /></g><g
       id="XMLID_446_"><circle
         id="XMLID_2274_"
         class="st0"
         cx="-67.5"
         cy="114.5"
         r="1.2"
         style="fill:#5fb0e5" /></g><g
       id="XMLID_443_"><circle
         id="XMLID_2272_"
         class="st0"
         cx="-33.099998"
         cy="77.699997"
         r="1"
         style="fill:#5fb0e5" /></g><g
       id="XMLID_444_"><circle
         id="XMLID_2270_"
         class="st0"
         cx="-26.4"
         cy="78.900002"
         r="1.5"
         style="fill:#5fb0e5" /></g></g></svg>