<?xml version="1.0" encoding="UTF-8" standalone="no"?>
<!-- Generator: Adobe Illustrator 19.0.0, SVG Export Plug-In . SVG Version: 6.00 Build 0)  -->

<svg
   xmlns:dc="http://purl.org/dc/elements/1.1/"
   xmlns:cc="http://creativecommons.org/ns#"
   xmlns:rdf="http://www.w3.org/1999/02/22-rdf-syntax-ns#"
   xmlns:svg="http://www.w3.org/2000/svg"
   xmlns="http://www.w3.org/2000/svg"
   xmlns:sodipodi="http://sodipodi.sourceforge.net/DTD/sodipodi-0.dtd"
   xmlns:inkscape="http://www.inkscape.org/namespaces/inkscape"
   version="1.1"
   id="icons"
   x="0px"
   y="0px"
   viewBox="0 0 41.2 44"
   xml:space="preserve"
   sodipodi:docname="research.svg"
   width="41.200001"
   height="44"
   inkscape:version="0.92.1 r15371"><metadata
     id="metadata57"><rdf:RDF><cc:Work
         rdf:about=""><dc:format>image/svg+xml</dc:format><dc:type
           rdf:resource="http://purl.org/dc/dcmitype/StillImage" /><dc:title></dc:title></cc:Work></rdf:RDF></metadata><defs
     id="defs55" /><sodipodi:namedview
     pagecolor="#ffffff"
     bordercolor="#666666"
     borderopacity="1"
     objecttolerance="10"
     gridtolerance="10"
     guidetolerance="10"
     inkscape:pageopacity="0"
     inkscape:pageshadow="2"
     inkscape:window-width="640"
     inkscape:window-height="480"
     id="namedview53"
     showgrid="false"
     fit-margin-top="0"
     fit-margin-left="0"
     fit-margin-right="0"
     fit-margin-bottom="0"
     inkscape:zoom="5.3636364"
     inkscape:cx="20.6"
     inkscape:cy="22"
     inkscape:window-x="0"
     inkscape:window-y="0"
     inkscape:window-maximized="0"
     inkscape:current-layer="icons" /><style
     type="text/css"
     id="style2">
	.st0{fill:#5FB0E5;}
	.st1{fill:#0686D8;}
	.st2{fill:#9ECFEF;}
	.st3{fill:#FFFFFF;}
</style><g
     id="XMLID_527_"><g
       id="XMLID_673_"><circle
         id="XMLID_635_"
         class="st0"
         cx="35.900002"
         cy="3"
         r="1.7"
         style="fill:#5fb0e5" /></g><g
       id="XMLID_642_"><circle
         id="XMLID_637_"
         class="st0"
         cx="33.700001"
         cy="12.7"
         r="0.5"
         style="fill:#5fb0e5" /></g><g
       id="XMLID_632_"><circle
         id="XMLID_643_"
         class="st0"
         cx="40.299999"
         cy="10.2"
         r="0.89999998"
         style="fill:#5fb0e5" /></g><g
       id="XMLID_678_"><circle
         id="XMLID_645_"
         class="st0"
         cx="1.2"
         cy="3.9000001"
         r="1.2"
         style="fill:#5fb0e5" /></g><g
       id="XMLID_677_"><circle
         id="XMLID_646_"
         class="st0"
         cx="10.3"
         cy="6.5999999"
         r="0.69999999"
         style="fill:#5fb0e5" /></g><g
       id="XMLID_644_"><circle
         id="XMLID_647_"
         class="st0"
         cx="2.9000001"
         cy="13.5"
         r="1.7"
         style="fill:#5fb0e5" /></g><g
       id="XMLID_648_"><g
         id="XMLID_671_"><rect
           id="XMLID_1686_"
           x="29.5"
           y="35"
           transform="matrix(0.7076,0.7066,-0.7066,0.7076,34.8422,-12.6064)"
           class="st1"
           width="6.3000002"
           height="1.5"
           style="fill:#0686d8" /></g><g
         id="XMLID_668_"><path
           id="XMLID_650_"
           class="st2"
           d="M 20.4,8.2 C 12,8.2 5.2,15 5.2,23.4 c 0,8.4 6.8,15.2 15.2,15.2 8.4,0 15.2,-6.8 15.2,-15.2 C 35.6,15 28.8,8.2 20.4,8.2 Z m 0,26.7 C 14,34.9 8.9,29.7 8.9,23.4 8.9,17 14.1,11.9 20.4,11.9 c 6.4,0 11.5,5.2 11.5,11.5 0,6.4 -5.2,11.5 -11.5,11.5 z"
           inkscape:connector-curvature="0"
           style="fill:#9ecfef" /></g><g
         id="XMLID_666_"><rect
           id="XMLID_2316_"
           x="32.599998"
           y="36"
           transform="matrix(-0.7076,-0.7066,0.7066,-0.7076,33.7186,92.0308)"
           class="st2"
           width="6.5999999"
           height="6"
           style="fill:#9ecfef" /></g><g
         id="XMLID_665_"><polygon
           id="XMLID_1685_"
           class="st1"
           points="35.7,33.5 40.8,38.7 39.8,39.7 35.7,35.6 32.5,38.8 36.6,42.9 35.5,44 30.4,38.8 "
           style="fill:#0686d8" /></g><g
         id="XMLID_664_"><rect
           id="XMLID_1684_"
           x="35.900002"
           y="36.599998"
           transform="matrix(0.7071,0.7071,-0.7071,0.7071,38.8431,-14.2506)"
           class="st1"
           width="1.5"
           height="6.3000002"
           style="fill:#0686d8" /></g><g
         id="XMLID_675_"><polygon
           id="XMLID_2310_"
           class="st3"
           points="9.6,11.9 13.9,11.9 13.9,34.3 9.6,31.7 "
           style="fill:#ffffff" /></g><g
         id="XMLID_674_"><rect
           id="XMLID_2178_"
           x="13.9"
           y="5.0999999"
           class="st0"
           width="4.3000002"
           height="30.700001"
           style="fill:#5fb0e5" /></g><g
         id="XMLID_672_"><rect
           id="XMLID_2306_"
           x="18.200001"
           y="7.8000002"
           class="st3"
           width="4.3000002"
           height="28"
           style="fill:#ffffff" /></g><g
         id="XMLID_667_"><rect
           id="XMLID_2304_"
           x="22.5"
           y="4.6999998"
           class="st0"
           width="4.3000002"
           height="31.1"
           style="fill:#5fb0e5" /></g><g
         id="XMLID_655_"><polygon
           id="XMLID_2302_"
           class="st3"
           points="26.9,0.8 31.2,0.8 31.2,32.8 26.9,35 "
           style="fill:#ffffff" /></g><g
         id="XMLID_649_"><path
           id="XMLID_1681_"
           class="st1"
           d="M 14.7,35.6 8.9,32.1 v -21 h 5.8 z m -4.4,-4.4 2.8,1.7 V 12.6 h -2.8 z"
           inkscape:connector-curvature="0"
           style="fill:#0686d8" /></g><g
         id="XMLID_651_"><path
           id="XMLID_1678_"
           class="st1"
           d="M 19,36.5 H 13.2 V 4.4 H 19 Z M 14.7,35 h 2.8 V 5.9 h -2.8 z"
           inkscape:connector-curvature="0"
           style="fill:#0686d8" /></g><g
         id="XMLID_652_"><path
           id="XMLID_1675_"
           class="st1"
           d="M 23.3,36.5 H 17.5 V 7.1 h 5.8 z M 19,35 h 2.8 V 8.6 H 19 Z"
           inkscape:connector-curvature="0"
           style="fill:#0686d8" /></g><g
         id="XMLID_654_"><path
           id="XMLID_1668_"
           class="st1"
           d="M 27.6,36.5 H 21.8 V 3.9 h 5.8 z M 23.3,35 h 2.8 V 5.4 h -2.8 z"
           inkscape:connector-curvature="0"
           style="fill:#0686d8" /></g><g
         id="XMLID_656_"><path
           id="XMLID_676_"
           class="st1"
           d="M 26.1,36.4 V 0 h 5.8 V 32.2 Z M 27.6,1.5 v 32 l 2.8,-2.1 V 1.5 Z"
           inkscape:connector-curvature="0"
           style="fill:#0686d8" /></g><g
         id="XMLID_660_"><path
           id="XMLID_662_"
           class="st2"
           d="m 31.9,23.4 c 0,6.4 -5.2,11.5 -11.5,11.5 C 14,34.9 8.9,29.7 8.9,23.4 H 5.3 c 0,8.4 6.8,15.2 15.2,15.2 8.4,0 15.2,-6.8 15.2,-15.2 z"
           inkscape:connector-curvature="0"
           style="fill:#9ecfef" /></g><g
         id="XMLID_679_"><path
           id="XMLID_1671_"
           class="st1"
           d="M 20.4,39.3 C 14.4,39.3 9,36 6.2,30.6 L 7.5,30 c 2.5,4.8 7.4,7.9 12.9,7.9 8,0 14.4,-6.5 14.4,-14.4 0,-2.7 -0.8,-5.4 -2.2,-7.7 L 33.9,15 c 1.6,2.5 2.5,5.5 2.5,8.5 -0.1,8.7 -7.2,15.8 -16,15.8 z M 5.3,28.7 C 4.9,27.4 4.6,26.1 4.4,24.8 L 6,24.7 c 0.1,1.2 0.4,2.4 0.8,3.5 z M 5.9,23.4 H 4.4 c 0,-3.1 0.9,-6 2.5,-8.6 l 1.3,0.8 c -1.5,2.3 -2.3,5 -2.3,7.8 z"
           inkscape:connector-curvature="0"
           style="fill:#0686d8" /></g></g></g></svg>