<?xml version="1.0" encoding="UTF-8" standalone="no"?>
<!-- Generator: Adobe Illustrator 19.0.0, SVG Export Plug-In . SVG Version: 6.00 Build 0)  -->

<svg
   xmlns:dc="http://purl.org/dc/elements/1.1/"
   xmlns:cc="http://creativecommons.org/ns#"
   xmlns:rdf="http://www.w3.org/1999/02/22-rdf-syntax-ns#"
   xmlns:svg="http://www.w3.org/2000/svg"
   xmlns="http://www.w3.org/2000/svg"
   xmlns:xlink="http://www.w3.org/1999/xlink"
   xmlns:sodipodi="http://sodipodi.sourceforge.net/DTD/sodipodi-0.dtd"
   xmlns:inkscape="http://www.inkscape.org/namespaces/inkscape"
   version="1.1"
   id="Слой_1"
   x="0px"
   y="0px"
   viewBox="0 0 161.7 161.75"
   xml:space="preserve"
   sodipodi:docname="search.svg"
   width="161.7"
   height="161.75"
   inkscape:version="0.92.1 r15371"><metadata
     id="metadata35"><rdf:RDF><cc:Work
         rdf:about=""><dc:format>image/svg+xml</dc:format><dc:type
           rdf:resource="http://purl.org/dc/dcmitype/StillImage" /><dc:title></dc:title></cc:Work></rdf:RDF></metadata><defs
     id="defs33" /><sodipodi:namedview
     pagecolor="#ffffff"
     bordercolor="#666666"
     borderopacity="1"
     objecttolerance="10"
     gridtolerance="10"
     guidetolerance="10"
     inkscape:pageopacity="0"
     inkscape:pageshadow="2"
     inkscape:window-width="640"
     inkscape:window-height="480"
     id="namedview31"
     showgrid="false"
     fit-margin-top="0"
     fit-margin-left="0"
     fit-margin-right="0"
     fit-margin-bottom="0"
     inkscape:zoom="1.4523077"
     inkscape:cx="81"
     inkscape:cy="80.85"
     inkscape:window-x="0"
     inkscape:window-y="0"
     inkscape:window-maximized="0"
     inkscape:current-layer="Слой_1" /><style
     type="text/css"
     id="style2">
	.st0{clip-path:url(#SVGID_2_);fill:#0686D8;}
	.st1{fill:#0686D8;}
	.st2{fill:#D2E9F7;}
	.st3{fill:#FFFFFF;}
	.st4{fill:#5FB0E5;}
</style><g
     id="g26"
     transform="translate(0,-0.35)"><g
       id="g14"><g
         id="g12"><defs
           id="defs5"><rect
             id="SVGID_1_"
             width="162"
             height="162.5"
             x="0"
             y="0" /></defs><clipPath
           id="SVGID_2_"><use
             xlink:href="#SVGID_1_"
             style="overflow:visible"
             id="use7"
             x="0"
             y="0"
             width="100%"
             height="100%" /></clipPath><path
           class="st0"
           d="m 157.8,139.4 c 2.6,2.6 3.9,6 3.9,9.4 0,3.4 -1.3,6.8 -3.9,9.4 -2.6,2.6 -6,3.9 -9.4,3.9 -3.4,0 -6.8,-1.3 -9.4,-3.9 l -38.6,-38.6 c -0.6,-0.6 -0.9,-1.4 -0.9,-2.3 0,-0.8 0.3,-1.7 0.9,-2.3 l 1.5,-1.5 -3.8,-3.8 C 87.2,118.1 74,122.3 60.9,122.3 45.3,122.3 29.6,116.4 17.8,104.5 -6,80.7 -6,42 17.8,18.2 c 23.8,-23.8 62.5,-23.8 86.3,0 21.9,21.9 23.6,56.5 5.2,80.4 l 3.8,3.8 1.5,-1.5 c 1.2,-1.2 3.3,-1.2 4.5,0 z m -4.5,14.2 c 2.7,-2.7 2.7,-7 0,-9.7 l -36.3,-36.3 -9.7,9.7 36.3,36.3 c 2.6,2.7 7,2.7 9.7,0 z M 115.6,61.3 C 115.6,46.7 109.9,33 99.6,22.7 89.3,12.4 75.6,6.7 61,6.7 c -14.6,0 -28.3,5.7 -38.6,16 -10.3,10.3 -16,24 -16,38.6 0,14.6 5.7,28.3 16,38.6 10.3,10.3 24,16 38.6,16 14.6,0 28.3,-5.7 38.6,-16 10.3,-10.2 16,-24 16,-38.6 z m -9.1,47.7 2.1,-2.1 -3.4,-3.4 c -0.3,0.4 -0.7,0.7 -1,1.1 -0.4,0.4 -0.7,0.7 -1.1,1 z"
           clip-path="url(#SVGID_2_)"
           id="path10"
           inkscape:connector-curvature="0"
           style="fill:#0686d8" /></g></g><circle
       class="st1"
       cx="60.700001"
       cy="60.700001"
       r="55.400002"
       id="circle16"
       style="fill:#0686d8" /><circle
       class="st2"
       cx="60.700001"
       cy="60.700001"
       r="53.400002"
       id="circle18"
       style="fill:#d2e9f7" /><circle
       class="st3"
       cx="60.700001"
       cy="60.700001"
       r="39.599998"
       id="circle20"
       style="fill:#ffffff" /><path
       class="st4"
       d="m 153.3,143.9 c 2.7,2.7 2.7,7 0,9.7 -2.7,2.7 -7,2.7 -9.7,0 l -36.3,-36.3 9.7,-9.7 z"
       id="path22"
       inkscape:connector-curvature="0"
       style="fill:#5fb0e5" /><path
       class="st2"
       d="m 108.6,106.9 -2.1,2.1 -3.4,-3.4 c 0.4,-0.3 0.7,-0.7 1.1,-1 0.3,-0.4 0.7,-0.7 1,-1.1 z"
       id="path24"
       inkscape:connector-curvature="0"
       style="fill:#d2e9f7" /></g><g
     id="XMLID_762_"
     transform="translate(0,-0.35)"><path
       id="XMLID_1794_"
       class="st1"
       d="M 86.4,39.9 C 73.6,23.9 50.7,25 35.6,40 l -5,-5 C 49.1,15.2 76.5,18 91.1,35.3 Z"
       inkscape:connector-curvature="0"
       style="fill:#0686d8" /></g></svg>