<?xml version="1.0" encoding="UTF-8" standalone="no"?>
<!-- Generator: Adobe Illustrator 19.0.0, SVG Export Plug-In . SVG Version: 6.00 Build 0)  -->

<svg
   xmlns:dc="http://purl.org/dc/elements/1.1/"
   xmlns:cc="http://creativecommons.org/ns#"
   xmlns:rdf="http://www.w3.org/1999/02/22-rdf-syntax-ns#"
   xmlns:svg="http://www.w3.org/2000/svg"
   xmlns="http://www.w3.org/2000/svg"
   xmlns:sodipodi="http://sodipodi.sourceforge.net/DTD/sodipodi-0.dtd"
   xmlns:inkscape="http://www.inkscape.org/namespaces/inkscape"
   version="1.1"
   id="business_card"
   x="0px"
   y="0px"
   viewBox="0 0 187.8 185.3"
   xml:space="preserve"
   sodipodi:docname="visitka.svg"
   inkscape:version="0.92.1 r15371"
   width="187.8"
   height="185.3"><metadata
     id="metadata44"><rdf:RDF><cc:Work
         rdf:about=""><dc:format>image/svg+xml</dc:format><dc:type
           rdf:resource="http://purl.org/dc/dcmitype/StillImage" /><dc:title></dc:title></cc:Work></rdf:RDF></metadata><defs
     id="defs42" /><sodipodi:namedview
     pagecolor="#ffffff"
     bordercolor="#666666"
     borderopacity="1"
     objecttolerance="10"
     gridtolerance="10"
     guidetolerance="10"
     inkscape:pageopacity="0"
     inkscape:pageshadow="2"
     inkscape:window-width="1524"
     inkscape:window-height="766"
     id="namedview40"
     showgrid="false"
     inkscape:zoom="1.4064362"
     inkscape:cx="-21.640255"
     inkscape:cy="101.4"
     inkscape:window-x="316"
     inkscape:window-y="84"
     inkscape:window-maximized="0"
     inkscape:current-layer="business_card"
     fit-margin-top="0"
     fit-margin-left="0"
     fit-margin-right="0"
     fit-margin-bottom="0" /><style
     type="text/css"
     id="style2">
	.st0{fill:#D2E9F7;}
	.st1{fill:#FFFFFF;}
	.st2{fill:#2682C5;}
	.st3{fill:#60AFE2;}
	.st4{fill:#2682C5;stroke:#2781C4;stroke-width:3;stroke-miterlimit:10;}
	.st5{fill:#60AFE2;stroke:#60AFE2;stroke-width:3;stroke-miterlimit:10;}
	.st6{fill:none;}
</style><rect
     id="XMLID_21_"
     x="37.599998"
     y="72.199997"
     class="st0"
     width="57.5"
     height="33.5"
     style="fill:#d2e9f7" /><ellipse
     id="XMLID_83_"
     class="st1"
     cx="64.699997"
     cy="88.800003"
     rx="12.4"
     ry="10.7"
     style="fill:#ffffff" /><g
     id="XMLID_666_"><path
       id="XMLID_1720_"
       class="st0"
       d="M 3.7,61.3 V 42.4 c 0,-5 4,-9 9,-9 H 175 c 5,0 9,4 9,9 V 61.2 H 3.7 Z"
       inkscape:connector-curvature="0"
       style="fill:#d2e9f7" /></g><g
     id="XMLID_665_"><rect
       id="XMLID_1734_"
       x="3.7"
       y="58"
       class="st2"
       width="180.39999"
       height="7.4000001"
       style="fill:#2682c5" /></g><g
     id="XMLID_664_"><rect
       id="XMLID_1733_"
       x="24.4"
       y="45.099998"
       class="st2"
       width="7.1999998"
       height="7.4000001"
       style="fill:#2682c5" /></g><g
     id="XMLID_663_"><rect
       id="XMLID_1732_"
       x="41.099998"
       y="45.099998"
       class="st2"
       width="7.1999998"
       height="7.4000001"
       style="fill:#2682c5" /></g><g
     id="XMLID_662_"><rect
       id="XMLID_1731_"
       x="57.799999"
       y="45.099998"
       class="st2"
       width="7.1999998"
       height="7.4000001"
       style="fill:#2682c5" /></g><g
     id="XMLID_661_"><circle
       id="XMLID_175_"
       class="st3"
       cx="112.6"
       cy="21.200001"
       r="2.5999999"
       style="fill:#60afe2" /></g><g
     id="XMLID_660_"><path
       id="XMLID_1730_"
       class="st2"
       d="m 174.5,167.8 h -4.1 l 0.4,-7.4 h 3.7 c 3.3,0 5.9,-2.7 5.9,-5.9 V 43 c 0,-3.3 -2.7,-5.9 -5.9,-5.9 h -28.6 v -7.4 h 28.6 c 7.3,0 13.3,6 13.3,13.3 v 111.5 c 0,7.3 -6,13.3 -13.3,13.3 z"
       inkscape:connector-curvature="0"
       style="fill:#2682c5" /></g><g
     id="XMLID_659_"><rect
       id="XMLID_1729_"
       x="112.2"
       y="29.700001"
       class="st2"
       width="22.799999"
       height="7.4000001"
       style="fill:#2682c5" /></g><g
     id="XMLID_658_"><path
       id="XMLID_1728_"
       class="st2"
       d="M 170.8,167.8 H 13.3 C 6,167.8 0,161.8 0,154.5 V 43 C 0,35.7 6,29.7 13.3,29.7 h 94.4 v 7.4 H 13.3 C 10,37.1 7.4,39.8 7.4,43 v 111.5 c 0,3.3 2.7,5.9 5.9,5.9 h 158 z"
       inkscape:connector-curvature="0"
       style="fill:#2682c5" /></g><g
     id="XMLID_655_"><circle
       id="XMLID_174_"
       class="st3"
       cx="90.199997"
       cy="4.4000001"
       r="4.4000001"
       style="fill:#60afe2" /></g><g
     id="XMLID_654_"><circle
       id="XMLID_173_"
       class="st3"
       cx="65.099998"
       cy="21.200001"
       r="6"
       style="fill:#60afe2" /></g><g
     id="XMLID_653_"><circle
       id="XMLID_167_"
       class="st3"
       cx="145.89999"
       cy="11.5"
       r="7.0999999"
       style="fill:#60afe2" /></g><g
     id="XMLID_17_"><path
       id="XMLID_259_"
       class="st4"
       d="m 97.3,108.9 v -37 H 35 v 37 z m -60,-2.2 V 74.1 h 57.8 v 32.6 z"
       inkscape:connector-curvature="0"
       style="fill:#2682c5;stroke:#2781c4;stroke-width:3;stroke-miterlimit:10" /><path
       id="XMLID_256_"
       class="st4"
       d="M 132.9,113.4 H 70.6 v 40 h 62.3 z m -2.3,37.8 H 72.8 v -35.6 h 57.8 z"
       inkscape:connector-curvature="0"
       style="fill:#2682c5;stroke:#2781c4;stroke-width:3;stroke-miterlimit:10" /><path
       id="XMLID_24_"
       class="st4"
       d="m 73.1,82.2 c 0,0 -0.3,0 0,0 -2.2,-2.7 -5.3,-4.4 -9.1,-4.4 -6.2,0 -11.1,4.9 -11.1,11.1 0,6.2 4.8,11.1 11,11.1 3.6,0 6.9,-1.8 8.9,-4.4 0.4,0 0.7,0 1.1,0 0.2,0 0.7,0 0.9,0 3.6,-0.4 6.2,-3.8 5.8,-7.6 -0.7,-3.5 -4,-6.2 -7.5,-5.8 z m -1.2,2.7 c 0.7,1.1 0.9,2.4 0.9,4 0,1.3 -0.4,2.7 -0.9,4 -1.3,-0.7 -2.2,-1.8 -2.4,-3.3 -0.2,-2 0.9,-3.8 2.4,-4.7 z m -8,12.9 C 59,97.8 55,93.8 55,88.9 55,84 59,80 63.9,80 c 2.7,0 5.1,1.1 6.7,3.1 -2.2,1.3 -3.8,4 -3.3,6.7 0.2,2.2 1.6,3.8 3.3,4.9 -1.5,1.8 -4,3.1 -6.7,3.1 z m 10.7,-4.4 c -0.2,0 -0.2,0 -0.4,0 0.7,-1.3 0.9,-2.9 0.9,-4.4 0,-1.5 -0.4,-3.1 -0.9,-4.4 2.2,0 4,1.6 4.2,3.8 0.2,2.3 -1.3,4.5 -3.8,5 z"
       inkscape:connector-curvature="0"
       style="fill:#2682c5;stroke:#2781c4;stroke-width:3;stroke-miterlimit:10" /><path
       id="XMLID_20_"
       class="st5"
       d="m 78.4,123.8 h 23.3 c 0.7,0 1.1,-0.4 1.1,-1.1 0,-0.7 -0.4,-1.1 -1.1,-1.1 H 78.4 c -0.7,0 -1.1,0.4 -1.1,1.1 0,0.7 0.4,1.1 1.1,1.1 z"
       inkscape:connector-curvature="0"
       style="fill:#60afe2;stroke:#60afe2;stroke-width:3;stroke-miterlimit:10" /><path
       id="XMLID_19_"
       class="st5"
       d="M 104.6,128.6 H 78.4 c -0.7,0 -1.1,0.4 -1.1,1.1 0,0.7 0.4,1.1 1.1,1.1 h 26.2 c 0.7,0 1.1,-0.4 1.1,-1.1 0,-0.7 -0.4,-1.1 -1.1,-1.1 z"
       inkscape:connector-curvature="0"
       style="fill:#60afe2;stroke:#60afe2;stroke-width:3;stroke-miterlimit:10" /><path
       id="XMLID_18_"
       class="st5"
       d="M 96.2,135.2 H 78.4 c -0.7,0 -1.1,0.4 -1.1,1.1 0,0.7 0.4,1.1 1.1,1.1 h 17.8 c 0.7,0 1.1,-0.4 1.1,-1.1 0,-0.7 -0.5,-1.1 -1.1,-1.1 z"
       inkscape:connector-curvature="0"
       style="fill:#60afe2;stroke:#60afe2;stroke-width:3;stroke-miterlimit:10" /></g><line
     id="XMLID_16_"
     class="st6"
     x1="12.8"
     y1="185.3"
     x2="12.8"
     y2="43"
     style="fill:none" /><line
     id="XMLID_15_"
     class="st6"
     x1="155.10001"
     y1="43"
     x2="155.10001"
     y2="185.3"
     style="fill:none" /></svg>